Tidy Time Series Graphics with R
…
## The `tsibble` index

.pull-left[

```r
set.seed(1)
ts <- tsibble(t = seq(36),
              y = rnorm(36),
*             index = t)
ts
```

```
## # A tsibble: 36 x 2 [1]
##        t      y
##    <int>  <dbl>
##  1     1 -0.626
##  2     2  0.184
##  3     3 -0.836
##  4     4  1.60 
##  5     5  0.330
##  6     6 -0.820
##  7     7  0.487
##  8     8  0.738
##  9     9  0.576
## 10    10 -0.305
## # … with 26 more rows
```
…
.pull-left[
### Working with tsibble objects

Example: Quarterly Australian Electricity Production

```r
elec <- aus_production %>%
  select(Quarter, Electricity) %>% 
  filter(year(Quarter) >= 1992)
elec
```

```
## # A tsibble: 74 x 2 [1Q]
##    Quarter Electricity
##      <qtr>       <dbl>
##  1 1992 Q1       38332
##  2 1992 Q2       39774
##  3 1992 Q3       42246
##  4 1992 Q4       38498
##  5 1993 Q1       39460
##  6 1993 Q2       41356
##  7 1993 Q3       42949
##  8 1993 Q4       40974
##  9 1994 Q1       40162
## 10 1994 Q2       41199
## # … with 64 more rows
```
…
.pull-left[
## Seasonal plots

```r
elec <- aus_production %>%
  select(Quarter, Electricity) %>% 
  filter(year(Quarter) >= 1992)
elec
```

```
## # A tsibble: 74 x 2 [1Q]
##    Quarter Electricity
##      <qtr>       <dbl>
##  1 1992 Q1       38332
##  2 1992 Q2       39774
##  3 1992 Q3       42246
##  4 1992 Q4       38498
##  5 1993 Q1       39460
##  6 1993 Q2       41356
##  7 1993 Q3       42949
##  8 1993 Q4       40974
##  9 1994 Q1       40162
## 10 1994 Q2       41199
## # … with 64 more rows
```
…
<img src="10_TS_graphics_files/figure-html/unnamed-chunk-14-1.png" style="display: block; margin: auto;" />

]
---
## Multiple seasonal periods

Half-hourly electricity demand for Victoria, Australia

```r
vic_elec
```

```
## # A tsibble: 52,608 x 5 [30m] <Australia/Melbourne>
##    Time                Demand Temperature Date       Holiday
##    <dttm>               <dbl>       <dbl> <date>     <lgl>  
##  1 2012-01-01 00:00:00  4383.        21.4 2012-01-01 TRUE   
##  2 2012-01-01 00:30:00  4263.        21.0 2012-01-01 TRUE   
##  3 2012-01-01 01:00:00  4049.        20.7 2012-01-01 TRUE   
##  4 2012-01-01 01:30:00  3878.        20.6 2012-01-01 TRUE   
##  5 2012-01-01 02:00:00  4036.        20.4 2012-01-01 TRUE   
##  6 2012-01-01 02:30:00  3866.        20.2 2012-01-01 TRUE   
##  7 2012-01-01 03:00:00  3694.        20.1 2012-01-01 TRUE   
##  8 2012-01-01 03:30:00  3562.        19.6 2012-01-01 TRUE   
##  9 2012-01-01 04:00:00  3433.        19.1 2012-01-01 TRUE   
## 10 2012-01-01 04:30:00  3359.        19.0 2012-01-01 TRUE   
## # … with 52,598 more rows
```
…
<img src="10_TS_graphics_files/figure-html/unnamed-chunk-21-1.png" style="display: block; margin: auto;" />
---
.pull-left[

```r
# install.packages("devtools")
# devtools::install_github("thiyangt/covid19srilanka")
library(covid19srilanka)
district.wise.cases
```

```
## # A tibble: 832 × 3
##    Date       District     Count
##    <date>     <chr>        <dbl>
##  1 2021-08-01 Colombo      71267
##  2 2021-08-01 Gampaha      56085
##  3 2021-08-01 Kalutara     33300
##  4 2021-08-01 Kandy        14576
##  5 2021-08-01 Kurunagala   15327
##  6 2021-08-01 Galle        14841
##  7 2021-08-01 Ratnapura    12267
##  8 2021-08-01 Matara        7778
##  9 2021-08-01 Matale        5694
## 10 2021-08-01 Nuwara Eliya  7917
## # … with 822 more rows
```
]

--
.pull-right[

```r
covidsl <- district.wise.cases %>%
* as_tsibble(index = Date,
*            key = District)

covidsl
```

```
## # A tsibble: 832 x 3 [1D]
## # Key:       District [26]
##    Date       District Count
##    <date>     <chr>    <dbl>
##  1 2021-08-01 Ampara    2117
##  2 2021-08-02 Ampara    2125
##  3 2021-08-03 Ampara    2137
##  4 2021-08-04 Ampara    2144
##  5 2021-08-05 Ampara    2150
##  6 2021-08-06 Ampara    2150
##  7 2021-08-07 Ampara    2153
##  8 2021-08-08 Ampara    2175
##  9 2021-08-09 Ampara    2180
## 10 2021-08-10 Ampara    2190
## # … with 822 more rows
```
…
