Introduction to statistical modelling in R
…
-  Add columns to the original data that was modeled.

- This includes predictions, residuals, and cluster assignments.

```r
library(broom)

model1 <- lm( body_mass_g ~ flipper_length_mm, data = penguins)

*augment(model1)
```

```
# A tibble: 342 × 9
   .rownames body_mass_g flipper_length_… .fitted  .resid    .hat .sigma .cooksd
   <chr>           <int>            <int>   <dbl>   <dbl>   <dbl>  <dbl>   <dbl>
 1 1                3750              181   3212.  538.   0.00881   394. 8.34e-3
 2 2                3800              186   3461.  339.   0.00622   394. 2.33e-3
 3 3                3250              195   3908. -658.   0.00344   393. 4.83e-3
 4 5                3450              193   3808. -358.   0.00385   394. 1.60e-3
 5 6                3650              190   3659.   -9.43 0.00469   395. 1.35e-6
 6 7                3625              181   3212.  413.   0.00881   394. 4.91e-3
 7 8                4675              195   3908.  767.   0.00344   393. 6.56e-3
 8 9                3475              193   3808. -333.   0.00385   394. 1.39e-3
 9 10               4250              190   3659.  591.   0.00469   394. 5.31e-3
10 11               3300              186   3461. -161.   0.00622   395. 5.23e-4
# … with 332 more rows, and 1 more variable: .std.resid <dbl>
```
…
