Data Wrangling with R
…
background-image: url(dplyr2.png)
background-size: 70px
background-position: 98% 6%

# `filter`: Picks observations by their values.

- Takes logical expressions and returns the rows for which all are `TRUE`.

```r
filter(penguins, flipper_length_mm > 180)
```

```
# A tibble: 329 × 8
   species island    bill_length_mm bill_depth_mm flipper_length_mm body_mass_g
   <fct>   <fct>              <dbl>         <dbl>             <int>       <int>
 1 Adelie  Torgersen           39.1          18.7               181        3750
 2 Adelie  Torgersen           39.5          17.4               186        3800
 3 Adelie  Torgersen           40.3          18                 195        3250
 4 Adelie  Torgersen           36.7          19.3               193        3450
 5 Adelie  Torgersen           39.3          20.6               190        3650
 6 Adelie  Torgersen           38.9          17.8               181        3625
 7 Adelie  Torgersen           39.2          19.6               195        4675
 8 Adelie  Torgersen           34.1          18.1               193        3475
 9 Adelie  Torgersen           42            20.2               190        4250
10 Adelie  Torgersen           37.8          17.1               186        3300
# … with 319 more rows, and 2 more variables: sex <fct>, year <int>
```

---
background-image: url(dplyr2.png)
background-size: 70px
background-position: 98% 6%

# `filter` (cont)

```r
# penguins %>% filter(species == "Chinstrap")
filter(penguins,  species == "Chinstrap")
```

```
# A tibble: 68 × 8
   species   island bill_length_mm bill_depth_mm flipper_length_mm body_mass_g
   <fct>     <fct>           <dbl>         <dbl>             <int>       <int>
 1 Chinstrap Dream            46.5          17.9               192        3500
 2 Chinstrap Dream            50            19.5               196        3900
 3 Chinstrap Dream            51.3          19.2               193        3650
 4 Chinstrap Dream            45.4          18.7               188        3525
 5 Chinstrap Dream            52.7          19.8               197        3725
 6 Chinstrap Dream            45.2          17.8               198        3950
 7 Chinstrap Dream            46.1          18.2               178        3250
 8 Chinstrap Dream            51.3          18.2               197        3750
 9 Chinstrap Dream            46            18.9               195        4150
10 Chinstrap Dream            51.3          19.9               198        3700
# … with 58 more rows, and 2 more variables: sex <fct>, year <int>
```
…
```r
select(penguins, bill_length_mm:body_mass_g)
```

```
# A tibble: 344 × 4
   bill_length_mm bill_depth_mm flipper_length_mm body_mass_g
            <dbl>         <dbl>             <int>       <int>
 1           39.1          18.7               181        3750
 2           39.5          17.4               186        3800
 3           40.3          18                 195        3250
 4           NA            NA                  NA          NA
 5           36.7          19.3               193        3450
 6           39.3          20.6               190        3650
 7           38.9          17.8               181        3625
 8           39.2          19.6               195        4675
 9           34.1          18.1               193        3475
10           42            20.2               190        4250
# … with 334 more rows
```
…
```r
select(penguins, species, body_mass_g)
```

```
# A tibble: 344 × 2
   species body_mass_g
   <fct>         <int>
 1 Adelie         3750
 2 Adelie         3800
 3 Adelie         3250
 4 Adelie           NA
 5 Adelie         3450
 6 Adelie         3650
 7 Adelie         3625
 8 Adelie         4675
 9 Adelie         3475
10 Adelie         4250
# … with 334 more rows
```
…
```r
select(penguins, -c(island, year))
```

```
# A tibble: 344 × 6
   species bill_length_mm bill_depth_mm flipper_length_mm body_mass_g sex   
   <fct>            <dbl>         <dbl>             <int>       <int> <fct> 
 1 Adelie            39.1          18.7               181        3750 male  
 2 Adelie            39.5          17.4               186        3800 female
 3 Adelie            40.3          18                 195        3250 female
 4 Adelie            NA            NA                  NA          NA <NA>  
 5 Adelie            36.7          19.3               193        3450 female
 6 Adelie            39.3          20.6               190        3650 male  
 7 Adelie            38.9          17.8               181        3625 female
 8 Adelie            39.2          19.6               195        4675 male  
 9 Adelie            34.1          18.1               193        3475 <NA>  
10 Adelie            42            20.2               190        4250 <NA>  
# … with 334 more rows
```
…
# `mutate`

- Creates new variables with functions of existing variables

```r
penguins <- penguins %>% mutate(BMI = body_mass_g / 1000)
penguins
```

```
# A tibble: 344 × 9
   species island    bill_length_mm bill_depth_mm flipper_length_mm body_mass_g
   <fct>   <fct>              <dbl>         <dbl>             <int>       <int>
 1 Adelie  Torgersen           39.1          18.7               181        3750
 2 Adelie  Torgersen           39.5          17.4               186        3800
 3 Adelie  Torgersen           40.3          18                 195        3250
 4 Adelie  Torgersen           NA            NA                  NA          NA
 5 Adelie  Torgersen           36.7          19.3               193        3450
 6 Adelie  Torgersen           39.3          20.6               190        3650
 7 Adelie  Torgersen           38.9          17.8               181        3625
 8 Adelie  Torgersen           39.2          19.6               195        4675
 9 Adelie  Torgersen           34.1          18.1               193        3475
10 Adelie  Torgersen           42            20.2               190        4250
# … with 334 more rows, and 3 more variables: sex <fct>, year <int>, BMI <dbl>
```
…
background-image: url(dplyr2.png)
background-size: 70px
background-position: 98% 6%

# `arrange`

- Reorder the rows

```r
arrange(penguins, desc(body_mass_g))
```

```
# A tibble: 344 × 9
   species island bill_length_mm bill_depth_mm flipper_length_mm body_mass_g
   <fct>   <fct>           <dbl>         <dbl>             <int>       <int>
 1 Gentoo  Biscoe           49.2          15.2               221        6300
 2 Gentoo  Biscoe           59.6          17                 230        6050
 3 Gentoo  Biscoe           51.1          16.3               220        6000
 4 Gentoo  Biscoe           48.8          16.2               222        6000
 5 Gentoo  Biscoe           45.2          16.4               223        5950
 6 Gentoo  Biscoe           49.8          15.9               229        5950
 7 Gentoo  Biscoe           48.4          14.6               213        5850
 8 Gentoo  Biscoe           49.3          15.7               217        5850
 9 Gentoo  Biscoe           55.1          16                 230        5850
10 Gentoo  Biscoe           49.5          16.2               229        5800
# … with 334 more rows, and 3 more variables: sex <fct>, year <int>, BMI <dbl>
```
…
# `group_by`

- Takes an existing tibble and converts it into a grouped tibble where operations are performed "by group". ungroup() removes grouping.

---

# `group_by`

```r
penguins_grouped <- penguins %>% group_by(species)
penguins_grouped
```

```
# A tibble: 344 × 9
# Groups:   species [3]
   species island    bill_length_mm bill_depth_mm flipper_length_mm body_mass_g
   <fct>   <fct>              <dbl>         <dbl>             <int>       <int>
 1 Adelie  Torgersen           39.1          18.7               181        3750
 2 Adelie  Torgersen           39.5          17.4               186        3800
 3 Adelie  Torgersen           40.3          18                 195        3250
 4 Adelie  Torgersen           NA            NA                  NA          NA
 5 Adelie  Torgersen           36.7          19.3               193        3450
 6 Adelie  Torgersen           39.3          20.6               190        3650
 7 Adelie  Torgersen           38.9          17.8               181        3625
 8 Adelie  Torgersen           39.2          19.6               195        4675
 9 Adelie  Torgersen           34.1          18.1               193        3475
10 Adelie  Torgersen           42            20.2               190        4250
# … with 334 more rows, and 3 more variables: sex <fct>, year <int>, BMI <dbl>
```
…
---
# `rename`

```r
penguins <- rename(penguins, `Bill length`=bill_length_mm,
       Location=island) # new_name = old_name
penguins
```

```
# A tibble: 344 × 9
   species Location  `Bill length` bill_depth_mm flipper_length_mm body_mass_g
   <fct>   <fct>             <dbl>         <dbl>             <int>       <int>
 1 Adelie  Torgersen          39.1          18.7               181        3750
 2 Adelie  Torgersen          39.5          17.4               186        3800
 3 Adelie  Torgersen          40.3          18                 195        3250
 4 Adelie  Torgersen          NA            NA                  NA          NA
 5 Adelie  Torgersen          36.7          19.3               193        3450
 6 Adelie  Torgersen          39.3          20.6               190        3650
 7 Adelie  Torgersen          38.9          17.8               181        3625
 8 Adelie  Torgersen          39.2          19.6               195        4675
 9 Adelie  Torgersen          34.1          18.1               193        3475
10 Adelie  Torgersen          42            20.2               190        4250
# … with 334 more rows, and 3 more variables: sex <fct>, year <int>, BMI <dbl>
```
…
